gender-shopping
…
Winter
Shirt
31

Winter
Socks
28

Seems like the season might be impacting data not in the way that we’d expect. For now, just still treat season as an explanatory variable.

Now that we have all settled - look at the data again:

# A tibble: 2,223 × 11
   `Customer ID`   Age Gender `Item Purchased` Category   Purchase Amount (USD…¹
           <dbl> <dbl> <chr>  <chr>            <chr>                       <dbl>
 1          1678    65 Male   Jeans            Clothing                       35
 2          1679    41 Male   Pants            Clothing                       71
 3          1680    60 Male   Dress            Clothing                       52
 4          1681    61 Male   Shoes            Footwear                       37
 5          1682    24 Male   Sneakers         Footwear                       95
 6          1683    65 Male   Socks            Clothing                       97
 7          1684    23 Male   Coat             Outerwear                      57
 8          1685    30 Male   Shirt            Clothing                       93
 9          1686    33 Male   Blouse           Clothing                       48
10          1687    22 Male   Gloves           Accessori…                     75
# ℹ 2,213 more rows
# ℹ abbreviated name: ¹​`Purchase Amount (USD)`
# ℹ 5 more variables: Location <chr>, Size <chr>, Color <chr>, Season <chr>,
#   Item_Category <chr>
…
